> 11/08
08:45 - 09:49
10:04 - 10:58
13:04 - 14:59
16:17 - 18:06
21:51 - 22:29
22:58 - 23:42

> 12/08
08:10 - 09:03
09:23 - 09:34
10:48 - 12:26
13:26 - 15:29
15:40 - 19:12
21:49 - 23:19
23:57 - 02:11

> 13/08
02:33 - 07:20
12:25 - 12:52
13:10 - 13:54
14:18 - ?
